arithmetic_netlists/muliplier/8-bit modified booth multiplier with CLA_ripple adder/multi_8bit.vcd
$date
	Wed May 02 09:37:38 2018
$end
$version
	Icarus Verilog
$end
$timescale
	10ps
$end
$scope module tb_multi_8bit $end
$var wire 16 ! prod [15:0] $end
$var reg 8 " a [7:0] $end
$var reg 8 # b [7:0] $end
$var reg 1 $ clk $end
$var reg 1 % load $end
$var reg 1 & rst $end
$scope module uut $end
$var wire 8 ' a [7:0] $end
$var wire 8 ( b [7:0] $end
$var wire 1 $ clk $end
$var wire 1 % load $end
$var wire 1 & rst $end
$var wire 3 ) xi [2:0] $end
$var wire 16 * prod [15:0] $end
$var wire 2 + mr_sel [1:0] $end
$var wire 9 , md [8:0] $end
$var wire 1 - cla_sub $end
$scope module a1 $end
$var wire 1 $ clk $end
$var wire 1 % load $end
$var wire 1 . msb_carry $end
$var wire 1 & rst $end
$var wire 1 / rst_new $end
$var wire 1 0 x $end
$var wire 17 1 shift_par_res [16:0] $end
$var wire 16 2 res [15:0] $end
$var wire 17 3 reg_res [16:0] $end
$var wire 17 4 par_res [16:0] $end
$var wire 9 5 md [8:0] $end
$var wire 1 6 fin_carry $end
$var wire 1 - cla_sub $end
$scope module cr8b1 $end
$var wire 8 7 a [7:0] $end
$var wire 8 8 b [7:0] $end
$var wire 8 9 sum [7:0] $end
$var wire 1 6 c8 $end
$var wire 1 : c4 $end
$var wire 1 - c0 $end
$var wire 8 ; b2 [7:0] $end
$scope module c4b1 $end
$var wire 4 < a [3:0] $end
$var wire 4 = b [3:0] $end
$var wire 4 > sum [3:0] $end
$var wire 4 ? p [3:0] $end
$var wire 4 @ g [3:0] $end
$var wire 1 : c4 $end
$var wire 1 A c3 $end
$var wire 1 B c2 $end
$var wire 1 C c1 $end
$var wire 1 - c0 $end
$scope module ca1 $end
$var wire 1 C c1 $end
$var wire 1 B c2 $end
$var wire 1 A c3 $end
$var wire 1 : c4 $end
$var wire 4 D p [3:0] $end
$var wire 4 E g [3:0] $end
$var wire 1 - c0 $end
$upscope $end
$scope module cpg1 $end
$var wire 4 F a [3:0] $end
$var wire 4 G b [3:0] $end
$var wire 4 H g [3:0] $end
$var wire 4 I p [3:0] $end
$upscope $end
$scope module s1 $end
$var wire 4 J c [3:0] $end
$var wire 4 K p [3:0] $end
$var wire 4 L s [3:0] $end
$upscope $end
$upscope $end
$scope module c4b2 $end
$var wire 4 M a [3:0] $end
$var wire 4 N b [3:0] $end
$var wire 1 : c0 $end
$var wire 4 O sum [3:0] $end
$var wire 4 P p [3:0] $end
$var wire 4 Q g [3:0] $end
$var wire 1 6 c4 $end
$var wire 1 R c3 $end
$var wire 1 S c2 $end
$var wire 1 T c1 $end
$scope module ca1 $end
$var wire 1 : c0 $end
$var wire 1 T c1 $end
$var wire 1 S c2 $end
$var wire 1 R c3 $end
$var wire 1 6 c4 $end
$var wire 4 U p [3:0] $end
$var wire 4 V g [3:0] $end
$upscope $end
$scope module cpg1 $end
$var wire 4 W a [3:0] $end
$var wire 4 X b [3:0] $end
$var wire 4 Y g [3:0] $end
$var wire 4 Z p [3:0] $end
$upscope $end
$scope module s1 $end
$var wire 4 [ c [3:0] $end
$var wire 4 \ p [3:0] $end
$var wire 4 ] s [3:0] $end
$upscope $end
$upscope $end
$scope module m2x1 $end
$var wire 8 ^ d0 [7:0] $end
$var wire 8 _ d1 [7:0] $end
$var wire 1 - sel $end
$var wire 8 ` dout [7:0] $end
$upscope $end
$upscope $end
$scope module d1 $end
$var wire 1 $ clk $end
$var wire 17 a d [16:0] $end
$var wire 1 / rst $end
$var reg 17 b q [16:0] $end
$upscope $end
$scope module fa1 $end
$var wire 1 c a $end
$var wire 1 d b $end
$var wire 1 e b3 $end
$var wire 1 . cin $end
$var wire 1 0 cout $end
$var wire 1 f sum $end
$var wire 1 g b2 $end
$var wire 1 - add_sub $end
$scope module m2x1b1 $end
$var wire 1 d d0 $end
$var wire 1 h d1 $end
$var wire 1 - sel $end
$var wire 1 g dout $end
$upscope $end
$upscope $end
$upscope $end
$scope module m41 $end
$var wire 9 i d0 [8:0] $end
$var wire 9 j d1 [8:0] $end
$var wire 9 k d2 [8:0] $end
$var wire 9 l d3 [8:0] $end
$var wire 2 m sel [1:0] $end
$var reg 9 n dout [8:0] $end
$upscope $end
$scope module p2b1 $end
$var wire 1 $ clk $end
$var wire 1 % load $end
$var wire 8 o pin [7:0] $end
$var wire 1 & rst $end
$var reg 9 p dout [8:0] $end
$var reg 3 q sout [2:0] $end
$upscope $end
$scope module ru $end
$var wire 3 r xi [2:0] $end
$var reg 2 s op [1:0] $end
$var reg 1 - sign $end
$upscope $end
$upscope $end
$upscope $end
$enddefinitions $end
#0
$dumpvars
bx s
bx r
bx q
bx p
bx o
bz n
bx m
b0 l
bx0 k
bx j
b0 i
xh
xg
xf
xe
zd
xc
bx b
bx a
bx `
bx _
bz ^
bx ]
bx \
bx [
bx Z
bx Y
bx X
bx W
bx V
bx U
xT
xS
xR
bx Q
bx P
bx O
bx N
bx M
bx L
bx K
bx J
bx I
bx H
bx G
bx F
bx E
bx D
xC
xB
xA
bx @
bx ?
bx >
bx =
bx <
bx ;
x:
bx 9
bz 8
bx 7
x6
bz 5
bx 4
bx 3
bx 2
bx 1
x0
1/
x.
x-
bz ,
bx +
bx *
bx )
bx (
bx '
1&
x%
0$
bx #
bx "
bx !
$end
#5000
b0 O
b0 ]
b0 9
b0 >
b0 L
0f
b0 P
b0 U
b0 Z
b0 \
b0 ?
b0 D
b0 I
b0 K
1h
b11111111 _
0d
b0 8
b0 ^
b0 ,
b0 5
b0 n
00
0.
06
0R
0S
0T
b0 [
0:
0A
0B
0C
b0 @
b0 E
b0 H
b0 Q
b0 V
b0 Y
b0 N
b0 X
b0 =
b0 G
b0 1
b0 a
b0 <
b0 F
b0 M
b0 W
0e
0g
b0 ;
b0 `
b0 !
b0 *
b0 2
b0 4
0c
b0 7
b0 J
0-
b0 +
b0 m
b0 s
b0 3
b0 b
b0 )
b0 q
b0 r
b0 p
1$
#6000
x/
0&
#10000
0$
#11000
1/
b110111 #
b110111 (
b110111 o
b111011010 j
b110110100 k
b11011010 "
b11011010 '
1%
#15000
0h
b100101 _
1d
b11011010 8
b11011010 ^
b111011010 ,
b111011010 5
b111011010 n
00
0.
06
0R
0S
0T
b0 [
0:
0A
0B
1C
b10 O
b10 ]
0f
b10 P
b10 U
b10 Z
b10 \
b101 ?
b101 D
b101 I
b101 K
b10 N
b10 X
b101 =
b101 G
b100110000000 1
b100110000000 a
0e
0g
b100101 ;
b100101 `
b10011000000000 4
b100110 9
b110 >
b110 L
b11 J
1-
b1 +
b1 m
b1 s
b110 )
b110 q
b110 r
b1101110 p
1$
#17000
0/
0%
#20000
0$
#25000
0S
b1001011 _
b10110100 8
b10110100 ^
b110110100 ,
b110110100 5
b110110100 n
0T
b0 [
0:
b1011 O
b1011 ]
1f
b1011 P
b1011 U
b1011 Z
b1011 \
b1101 ?
b1101 D
b1101 I
b1101 K
b0 @
b0 E
b0 H
b1011 N
b1011 X
b100 =
b100 G
0C
b11110111101100000 1
b11110111101100000 a
b1001 <
b1001 F
1e
1g
b10110100 ;
b10110100 `
b10111101 9
b1101 >
b1101 L
b100110000000 !
b100110000000 *
b100110000000 2
b11011110110000000 4
b1001 7
b0 J
0-
b10 +
b10 m
b10 s
b100110000000 3
b100110000000 b
b11 )
b11 q
b11 r
b11011 p
1$
#30000
0$
#35000
1S
b100101 _
b11011010 8
b11011010 ^
b111011010 ,
b111011010 5
b111011010 n
10
0f
1.
16
1:
1A
b1101 [
1R
1B
b1 O
b1 ]
b1010 ?
b1010 D
b1010 I
b1010 K
b101 @
b101 E
b101 H
b1100 P
b1100 U
b1100 Z
b1100 \
b10 Q
b10 V
b10 Y
b10 N
b10 X
b101 =
b101 G
1C
b10101011000 1
b10101011000 a
b1111 <
b1111 F
b1110 M
b1110 W
0e
0g
b100101 ;
b100101 `
b10101 9
b101 >
b101 L
b1110111101100000 !
b1110111101100000 *
b1110111101100000 2
b1010101100000 4
1c
b11101111 7
b1111 J
1-
b1 +
b1 m
b1 s
b11110111101100000 3
b11110111101100000 b
b110 )
b110 q
b110 r
b110 p
1$
#40000
0$
#45000
00
1f
0:
0.
06
0R
0A
0B
0T
b0 [
0S
0C
b1101 O
b1101 ]
b1111 ?
b1111 D
b1111 I
b1111 K
b0 @
b0 E
b0 H
b1101 P
b1101 U
b1101 Z
b1101 \
b0 Q
b0 V
b0 Y
b1101 N
b1101 X
b1010 =
b1010 G
b11111011111010110 1
b11111011111010110 a
b101 <
b101 F
b0 M
b0 W
1e
1g
b11011010 ;
b11011010 `
b11011111 9
b1111 >
b1111 L
b10101011000 !
b10101011000 *
b10101011000 2
b11101111101011000 4
0c
b101 7
b0 J
0-
b10101011000 3
b10101011000 b
b1 )
b1 q
b1 r
b1 p
1$
#50000
0$
#55000
b0 N
b0 X
b0 =
b0 G
1h
0e
0g
b11111111 _
b0 ;
b0 `
0d
b0 8
b0 ^
b0 ,
b0 5
b0 n
0:
0A
0.
06
0R
0S
b0 J
0B
b0 [
0T
00
b111 >
b111 L
b11110111 9
b1111 O
b1111 ]
1f
b111 ?
b111 D
b111 I
b111 K
b0 @
b0 E
b0 H
b1111 P
b1111 U
b1111 Z
b1111 \
b0 Q
b0 V
b0 Y
b11111110111110101 1
b11111110111110101 a
b111 <
b111 F
b1111 M
b1111 W
b1111011111010110 !
b1111011111010110 *
b1111011111010110 2
b11111011111010110 4
1c
b11110111 7
b0 +
b0 m
b0 s
b11111011111010110 3
b11111011111010110 b
b0 )
b0 q
b0 r
b0 p
1$
#60000
0$
#64000
1/
b1101011 #
b1101011 (
b1101011 o
b10110 j
b101100 k
b10110 "
b10110 '
1%
#65000
b1110 P
b1110 U
b1110 Z
b1110 \
b11101001 _
b10110 8
b10110 ^
b10110 ,
b10110 5
b10110 n
00
1f
0.
06
0R
0S
0T
b1110 O
b1110 ]
b0 [
0:
0A
0B
b1001 ?
b1001 D
b1001 I
b1001 K
b1110 N
b1110 X
b1001 =
b1001 G
1C
b11111101010000000 1
b11111101010000000 a
b0 <
b0 F
b0 M
b0 W
1e
1g
b11101001 ;
b11101001 `
b11101010 9
b1010 >
b1010 L
b0 !
b0 *
b0 2
b11110101000000000 4
0c
b0 7
b11 J
1-
b1 +
b1 m
b1 s
b0 3
b0 b
b110 )
b110 q
b110 r
b11010110 p
1$
#66000
0/
0%
#70000
0$
#75000
1T
1:
1.
16
1R
b111 J
1B
b1111 [
1S
10
b100 >
b100 L
b11100100 9
b1110 O
b1110 ]
1f
b11 ?
b11 D
b11 I
b11 K
b1000 @
b1000 E
b1000 H
b1 P
b1 U
b1 Z
b1 \
b1110 Q
b1110 V
b1110 Y
b11111100100100000 1
b11111100100100000 a
b1010 <
b1010 F
b1111 M
b1111 W
b1111101010000000 !
b1111101010000000 *
b1111101010000000 2
b11110010010000000 4
1c
b11111010 7
b11111101010000000 3
b11111101010000000 b
b101 )
b101 q
b101 r
b110101 p
1$
#80000
0$
#85000
b11 J
0B
b11100011 9
b11 >
b11 L
b0 ?
b0 D
b0 I
b0 K
b1001 @
b1001 E
b1001 H
b11111100011001000 1
b11111100011001000 a
b1001 <
b1001 F
b1111100100100000 !
b1111100100100000 *
b1111100100100000 2
b11110001100100000 4
b11111001 7
b11111100100100000 3
b11111100100100000 b
b1101 p
1$
#90000
0$
#95000
1T
b11010011 _
b101100 8
b101100 ^
b101100 ,
b101100 5
b101100 n
1:
b1111 [
1S
0C
b10 O
b10 ]
0f
b1101 P
b1101 U
b1101 Z
b1101 \
b10 Q
b10 V
b10 Y
b100 ?
b100 D
b100 I
b100 K
b1000 @
b1000 E
b1000 H
b10 N
b10 X
b1100 =
b1100 G
b100100110010 1
b100100110010 a
b1000 <
b1000 F
0e
0g
b101100 ;
b101100 `
b100100 9
b100 >
b100 L
b1111100011001000 !
b1111100011001000 *
b1111100011001000 2
b10010011001000 4
b11111000 7
b0 J
0-
b10 +
b10 m
b10 s
b11111100011001000 3
b11111100011001000 b
b11 )
b11 q
b11 r
b11 p
1$
#100000
0$
#105000
0:
b0 @
b0 E
b0 H
b0 N
b0 X
b0 =
b0 G
b11111111 _
b0 ;
b0 `
b0 8
b0 ^
b0 ,
b0 5
b0 n
0.
06
0R
0T
b0 [
0S
00
b1001 >
b1001 L
b1001 9
b0 O
b0 ]
0f
b1001 ?
b1001 D
b1001 I
b1001 K
b0 P
b0 U
b0 Z
b0 \
b0 Q
b0 V
b0 Y
b1001001100 1
b1001001100 a
b1001 <
b1001 F
b0 M
b0 W
b100100110010 !
b100100110010 *
b100100110010 2
b100100110010 4
0c
b1001 7
b0 +
b0 m
b0 s
b100100110010 3
b100100110010 b
b0 )
b0 q
b0 r
b0 p
1$
#110000
0$
#114000
1/
b1011011 #
b1011011 (
b1011011 o
b110011101 j
b100111010 k
b10011101 "
b10011101 '
1%
#115000
0h
b1100010 _
1d
b10011101 8
b10011101 ^
b110011101 ,
b110011101 5
b110011101 n
00
0.
06
0R
0S
0T
b0 [
0:
0A
0B
b110 O
b110 ]
0f
b110 P
b110 U
b110 Z
b110 \
b10 ?
b10 D
b10 I
b10 K
b110 N
b110 X
b10 =
b10 G
0C
b1100011000000 1
b1100011000000 a
b0 <
b0 F
0e
0g
b1100010 ;
b1100010 `
b1100011 9
b11 >
b11 L
b0 !
b0 *
b0 2
b110001100000000 4
b0 7
b1 J
1-
b1 +
b1 m
b1 s
b0 3
b0 b
b110 )
b110 q
b110 r
b10110110 p
1$
#116000
0/
0%
#120000
0$
#125000
b1011 >
b1011 L
b1111011 9
b111 O
b111 ]
b1010 ?
b1010 D
b1010 I
b1010 K
b111 P
b111 U
b111 Z
b111 \
b1111011110000 1
b1111011110000 a
b1000 <
b1000 F
b1 M
b1 W
b1100011000000 !
b1100011000000 *
b1100011000000 2
b111101111000000 4
b11000 7
b1100011000000 3
b1100011000000 b
b101 )
b101 q
b101 r
b101101 p
1$
#130000
0$
#135000
1S
1B
b11000101 _
b111010 8
b111010 ^
b100111010 ,
b100111010 5
b100111010 n
1:
1A
b111 [
1T
b101 O
b101 ]
1f
b10 P
b10 U
b10 Z
b10 \
b1 Q
b1 V
b1 Y
b100 ?
b100 D
b100 I
b100 K
b1010 @
b1010 E
b1010 H
b11 N
b11 X
b1010 =
b1010 G
b11101011000111100 1
b11101011000111100 a
b1110 <
b1110 F
1e
1g
b111010 ;
b111010 `
b1011000 9
b1000 >
b1000 L
b1111011110000 !
b1111011110000 *
b1111011110000 2
b10101100011110000 4
b11110 7
b1100 J
0-
b10 +
b10 m
b10 s
b1111011110000 3
b1111011110000 b
b11 )
b11 q
b11 r
b1011 p
1$
#140000
0$
#145000
0S
b1000 J
0B
b1001 Q
b1001 V
b1001 Y
b1001 N
b1001 X
b1101 =
b1101 G
b1100010 _
b10011101 ;
b10011101 `
b10011101 8
b10011101 ^
b110011101 ,
b110011101 5
b110011101 n
1.
16
b11 [
0R
10
b11 >
b11 L
b1110011 9
b111 O
b111 ]
1f
b1011 ?
b1011 D
b1011 I
b1011 K
b100 @
b100 E
b100 H
b100 P
b100 U
b100 Z
b100 \
b11101110011001111 1
b11101110011001111 a
b110 <
b110 F
b1101 M
b1101 W
b1101011000111100 !
b1101011000111100 *
b1101011000111100 2
b10111001100111100 4
1c
b11010110 7
b1 +
b1 m
b1 s
b11101011000111100 3
b11101011000111100 b
b10 )
b10 q
b10 r
b10 p
1$
#150000
0$
#155000
00
0.
06
0:
b0 J
0A
b0 [
0T
b1101 O
b1101 ]
1f
b1101 P
b1101 U
b1101 Z
b1101 \
b0 Q
b0 V
b0 Y
b0 N
b0 X
b0 =
b0 G
1h
0e
0g
b11111111 _
b0 ;
b0 `
0d
b0 8
b0 ^
b0 ,
b0 5
b0 n
b11011100 9
b1100 >
b1100 L
b1100 ?
b1100 D
b1100 I
b1100 K
b0 @
b0 E
b0 H
b11111011100110011 1
b11111011100110011 a
b1100 <
b1100 F
b1101110011001111 !
b1101110011001111 *
b1101110011001111 2
b11101110011001111 4
b11011100 7
b0 +
b0 m
b0 s
b11101110011001111 3
b11101110011001111 b
b0 )
b0 q
b0 r
b0 p
1$
#160000
0$
#164000
1/
b10101110 #
b10101110 (
b10101110 o
b1001110 j
b10011100 k
b1001110 "
b1001110 '
1%
#165000
b1100011 _
b10011100 8
b10011100 ^
b10011100 ,
b10011100 5
b10011100 n
00
1f
0.
06
0R
0S
0T
b0 [
0:
0A
1B
1C
b110 O
b110 ]
b11 ?
b11 D
b11 I
b11 K
b110 P
b110 U
b110 Z
b110 \
b110 N
b110 X
b11 =
b11 G
b11101100100000000 1
b11101100100000000 a
b0 <
b0 F
b0 M
b0 W
1e
1g
b1100011 ;
b1100011 `
b1100100 9
b100 >
b100 L
b0 !
b0 *
b0 2
b10110010000000000 4
0c
b0 7
b111 J
1-
b10 +
b10 m
b10 s
b0 3
b0 b
b100 )
b100 q
b100 r
b101011100 p
1$
#166000
0/
0%
#170000
0$
#175000
b11111111 _
b0 8
b0 ^
b0 ,
b0 5
b0 n
00
1f
0:
0.
06
b0 [
0T
b1101 O
b1101 ]
0B
b1001 ?
b1001 D
b1001 I
b1001 K
b0 @
b0 E
b0 H
b1101 P
b1101 U
b1101 Z
b1101 \
b0 Q
b0 V
b0 Y
b0 N
b0 X
b0 =
b0 G
0C
b11111011001000000 1
b11111011001000000 a
b1001 <
b1001 F
b1101 M
b1101 W
0e
0g
b0 ;
b0 `
b11101100100000000 4
b11011001 9
b1001 >
b1001 L
b1101100100000000 !
b1101100100000000 *
b1101100100000000 2
1c
b11011001 7
b0 J
0-
b0 +
b0 m
b0 s
b11101100100000000 3
b11101100100000000 b
b111 )
b111 q
b111 r
b1010111 p
1$
#180000
0$
#185000
b111 ?
b111 D
b111 I
b111 K
b10110001 _
b1001110 8
b1001110 ^
b1001110 ,
b1001110 5
b1001110 n
0:
1.
16
1A
1R
1B
1S
b1110 [
1T
10
b1010 O
b1010 ]
1f
b0 @
b0 E
b0 H
b100 P
b100 U
b100 Z
b100 \
b1011 Q
b1011 V
b1011 Y
b1011 N
b1011 X
b1 =
b1 G
1C
b11110101000010000 1
b11110101000010000 a
b110 <
b110 F
b1111 M
b1111 W
1e
1g
b10110001 ;
b10110001 `
b10101000 9
b1000 >
b1000 L
b1111011001000000 !
b1111011001000000 *
b1111011001000000 2
b11010100001000000 4
b11110110 7
b1111 J
1-
b1 +
b1 m
b1 s
b11111011001000000 3
b11111011001000000 b
b101 )
b101 q
b101 r
b10101 p
1$
#190000
0$
#195000
b111 J
0A
b1100 [
0T
b1100 >
b1100 L
b10011100 9
b1001 O
b1001 ]
b1011 ?
b1011 D
b1011 I
b1011 K
b101 P
b101 U
b101 Z
b101 \
b1010 Q
b1010 V
b1010 Y
b11110011100000100 1
b11110011100000100 a
b1010 <
b1010 F
b1110 M
b1110 W
b1110101000010000 !
b1110101000010000 *
b1110101000010000 2
b11001110000010000 4
b11101010 7
b11110101000010000 3
b11110101000010000 b
b101 p
1$
#200000
0$
#205000
10
1:
1.
16
1A
b1001 [
0S
b11 O
b11 ]
0f
b1010 P
b1010 U
b1010 Z
b1010 \
b100 Q
b100 V
b100 Y
1B
b1001 ?
b1001 D
b1001 I
b1001 K
b110 @
b110 E
b110 H
b100 N
b100 X
b1110 =
b1110 G
0C
b110101000001 1
b110101000001 a
b111 <
b111 F
0e
0g
b1001110 ;
b1001110 `
b110101 9
b101 >
b101 L
b1110011100000100 !
b1110011100000100 *
b1110011100000100 2
b11010100000100 4
b11100111 7
b1100 J
0-
b11110011100000100 3
b11110011100000100 b
b1 )
b1 q
b1 r
b1 p
1$
#210000
0$
#214000
00
1f
0.
06
0:
b0 [
0R
0A
b0 J
0B
b11111100111000001 1
b11111100111000001 a
b1110 O
b1110 ]
b11110011100000100 4
b11100111 9
b111 >
b111 L
b1110 P
b1110 U
b1110 Z
b1110 \
b0 Q
b0 V
b0 Y
b111 ?
b111 D
b111 I
b111 K
b0 @
b0 E
b0 H
b0 N
b0 X
b0 =
b0 G
b11111111 _
b0 ;
b0 `
b0 8
b0 ^
b0 ,
b0 5
b0 n
1/
b0 #
b0 (
b0 o
b0 j
b0 k
b0 "
b0 '
1%
#215000
b0 >
b0 L
b0 9
b0 O
b0 ]
0f
b0 ?
b0 D
b0 I
b0 K
b0 P
b0 U
b0 Z
b0 \
b0 1
b0 a
b0 <
b0 F
b0 M
b0 W
b0 !
b0 *
b0 2
b0 4
0c
b0 7
b0 +
b0 m
b0 s
b0 3
b0 b
b0 )
b0 q
b0 r
b0 p
1$
#216000
0/
0%
#220000
0$
#225000
1$
#230000
0$
#235000
1$
#240000
0$
#245000
1$
#250000
0$
#255000
1$
#260000
0$
#264000
1/
b11010010 #
b11010010 (
b11010010 o
b111001001 j
b110010010 k
b11001001 "
b11001001 '
1%
#265000
0h
b1101101 _
1d
b10010010 8
b10010010 ^
b110010010 ,
b110010010 5
b110010010 n
00
0.
06
0R
0S
0T
b0 [
0:
0A
0B
1C
b110 O
b110 ]
0f
b110 P
b110 U
b110 Z
b110 \
b1101 ?
b1101 D
b1101 I
b1101 K
b110 N
b110 X
b1101 =
b1101 G
b1101110000000 1
b1101110000000 a
0e
0g
b1101101 ;
b1101101 `
b110111000000000 4
b1101110 9
b1110 >
b1110 L
b11 J
1-
b10 +
b10 m
b10 s
b100 )
b100 q
b100 r
b110100100 p
1$
#266000
0/
0%
#270000
0$
#275000
1:
b110110 _
b11001001 8
b11001001 ^
b111001001 ,
b111001001 5
b111001001 n
1B
b11 [
1T
b1110 O
b1110 ]
1f
b10 ?
b10 D
b10 I
b10 K
b1001 @
b1001 E
b1001 H
b1101 P
b1101 U
b1101 Z
b1101 \
b0 Q
b0 V
b0 Y
b1100 N
b1100 X
b1001 =
b1001 G
1C
b11111100100100000 1
b11111100100100000 a
b1011 <
b1011 F
b1 M
b1 W
1e
1g
b11001001 ;
b11001001 `
b11100100 9
b100 >
b100 L
b1101110000000 !
b1101110000000 *
b1101110000000 2
b11110010010000000 4
b11011 7
b110 J
0-
b1 +
b1 m
b1 s
b1101110000000 3
b1101110000000 b
b1 )
b1 q
b1 r
b1101001 p
1$
#280000
0$
#285000
1.
16
b10 J
0B
1R
b1111 [
1S
10
b10 >
b10 L
b11000010 9
b1100 O
b1100 ]
1f
b0 ?
b0 D
b0 I
b0 K
b11 P
b11 U
b11 Z
b11 \
b1100 Q
b1100 V
b1100 Y
b11111000010001000 1
b11111000010001000 a
b1001 <
b1001 F
b1111 M
b1111 W
b1111100100100000 !
b1111100100100000 *
b1111100100100000 2
b11100001000100000 4
1c
b11111001 7
b11111100100100000 3
b11111100100100000 b
b10 )
b10 q
b10 r
b11010 p
1$
#290000
0$
#295000
0:
b1110 [
1R
0C
b10 O
b10 ]
0f
b1100 P
b1100 U
b1100 Z
b1100 \
b11 Q
b11 V
b11 Y
b110 ?
b110 D
b110 I
b110 K
b0 @
b0 E
b0 H
b11 N
b11 X
b110 =
b110 G
b100111100010 1
b100111100010 a
b0 <
b0 F
0e
0g
b110110 ;
b110110 `
b100111 9
b111 >
b111 L
b1111000010001000 !
b1111000010001000 *
b1111000010001000 2
b10011110001000 4
b11110000 7
b1 J
1-
b11111000010001000 3
b11111000010001000 b
b110 )
b110 q
b110 r
b110 p
1$
#300000
0$
#305000
00
1f
0.
06
1:
0R
0S
b1101 O
b1101 ]
1C
b1 [
0T
b0 ?
b0 D
b0 I
b0 K
b1001 @
b1001 E
b1001 H
b0 Q
b0 V
b0 Y
b1100 N
b1100 X
b1001 =
b1001 G
b11111010010111000 1
b11111010010111000 a
b1001 <
b1001 F
b0 M
b0 W
1e
1g
b11001001 ;
b11001001 `
b11010010 9
b10 >
b10 L
b100111100010 !
b100111100010 *
b100111100010 2
b11101001011100010 4
0c
b1001 7
b10 J
0-
b100111100010 3
b100111100010 b
b1 )
b1 q
b1 r
b1 p
1$
#310000
0$
#314000
1A
b1110 J
1B
b1111000111000 1
b1111000111000 a
b111 O
b111 ]
b1111000 9
b1000 >
b1000 L
b111100011100010 4
0f
b110 P
b110 U
b110 Z
b110 \
b110 ?
b110 D
b110 I
b110 K
b110 N
b110 X
b1111 =
b1111 G
1h
0e
0g
b10010000 _
b1101111 ;
b1101111 `
0d
b1101111 8
b1101111 ^
b1101111 ,
b1101111 5
b1101111 n
1/
b0 #
b0 (
b0 o
b1101111 j
b11011110 k
b1101111 "
b1101111 '
1%
#315000
b0 P
b0 U
b0 Z
b0 \
b0 N
b0 X
b0 =
b0 G
b11111111 _
b0 ;
b0 `
b0 8
b0 ^
b0 ,
b0 5
b0 n
b0 O
b0 ]
b0 [
0:
0A
0B
b0 J
0C
b0 9
b0 >
b0 L
b0 ?
b0 D
b0 I
b0 K
b0 @
b0 E
b0 H
b0 1
b0 a
b0 <
b0 F
b0 !
b0 *
b0 2
b0 4
b0 7
b0 +
b0 m
b0 s
b0 3
b0 b
b0 )
b0 q
b0 r
b0 p
1$
#316000
0/
0%
